…
``` r
df_data
```

    ## # A tibble: 11,994 x 18
    ##       X1 state date       total_cases total_deaths total_population
    ##    <dbl> <chr> <date>           <dbl>        <dbl>            <dbl>
    ##  1     1 Alab… 2020-03-13           6            0          4864680
    ##  2     2 Alab… 2020-03-14          12            0          4864680
    ##  3     3 Alab… 2020-03-15          23            0          4864680
    ##  4     4 Alab… 2020-03-16          29            0          4864680
    ##  5     5 Alab… 2020-03-17          39            0          4864680
    ##  6     6 Alab… 2020-03-18          51            0          4864680
    ##  7     7 Alab… 2020-03-19          78            0          4864680
    ##  8     8 Alab… 2020-03-20         106            0          4864680
    ##  9     9 Alab… 2020-03-21         131            0          4864680
    ## 10    10 Alab… 2020-03-22         157            0          4864680
    ## # … with 11,984 more rows, and 12 more variables: cases_per100k <dbl>,
    ## #   deaths_per100k <dbl>, measures <chr>, `Resource allocation` <dbl>, `Risk
    ## #   communication` <dbl>, `Social distancing` <dbl>, `Healthcare and public
    ## #   health capacity` <dbl>, `Travel restriction` <dbl>, `Case identification,
    ## #   contact tracing and related measures` <dbl>, `Returning to normal
    ## #   life` <dbl>, `Environmental measures` <lgl>, num_measures_perday <dbl>
…
